{
  "kind": "collectionType",
  "collectionName": "rooms",
  "info": {
    "singularName": "room",
    "pluralName": "rooms",
    "displayName": "Room",
    "description": ""
  },
  "options": {
    "draftAndPublish": false
  },
  "pluginOptions": {},
  "attributes": {
    "title": {
      "type": "string",
      "required": true
    },
    "description": {
      "type": "text"
    },
    "password": {
      "type": "string"
    },
    "npcs": {
      "type": "component",
      "repeatable": true,
      "component": "in-game.npc",
      "max": 30
    },
    "shown_npcs": {
      "type": "component",
      "repeatable": true,
      "component": "in-game.npc",
      "max": 10
    },
    "gm_id": {
      "type": "string",
      "required": true
    },
    "system": {
      "type": "string"
    },
    "events": {
      "type": "component",
      "repeatable": true,
      "component": "utils.text-block"
    },
    "background_id": {
      "type": "string"
    },
    "characters": {
      "type": "component",
      "repeatable": true,
      "component": "in-game.character"
    }
  }
}
